RISC_V32bit.sim/sim_1/behav/xsim/processor.vcd
$date
   Fri Oct 31 16:36:12 2025
$end

$version
  2025.1.0
  $dumpfile ("processor.vcd") 
$end

$timescale
  1ps
$end

$scope module PROCESSOR_tb $end
$var reg 1 ! clock $end
$var reg 1 " reset $end
$var reg 8 # sw [7:0] $end
$var wire 8 $ led [7:0] $end
$var wire 1 % zero $end
$scope module dut $end
$var wire 1 & clock $end
$var wire 1 ' reset $end
$var wire 8 ( sw [7:0] $end
$var wire 8 $ led [7:0] $end
$var wire 1 % zero $end
$var wire 1 ) Stall $end
$var wire 1 * Flush $end
$var wire 32 + if_instruction_code [31:0] $end
$var wire 32 , if_pc_out [31:0] $end
$var wire 32 - if_pc_plus_4 [31:0] $end
$var wire 32 . if_next_pc [31:0] $end
$var wire 32 / branch_target [31:0] $end
$var wire 32 0 jalr_target [31:0] $end
$var wire 32 1 id_instruction_code [31:0] $end
$var wire 32 2 id_pc [31:0] $end
$var wire 32 3 id_pc_plus_4 [31:0] $end
$var wire 5 4 id_rs1 [4:0] $end
$var wire 5 5 id_rs2 [4:0] $end
$var wire 5 6 id_rd [4:0] $end
$var wire 32 7 id_read_data1 [31:0] $end
$var wire 32 8 id_read_data2 [31:0] $end
$var wire 32 9 id_imm [31:0] $end
$var wire 1 : id_RegWrite $end
$var wire 1 ; id_ALUSrc $end
$var wire 1 < id_MemRead $end
$var wire 1 = id_MemWrite $end
$var wire 1 > id_Branch $end
$var wire 1 ? id_Jump $end
$var wire 4 @ id_ALUControl [3:0] $end
$var wire 2 A id_WriteSrc [1:0] $end
$var wire 1 B ex_RegWrite $end
$var wire 4 C ex_ALUControl [3:0] $end
$var wire 1 D ex_ALUSrc $end
$var wire 1 E ex_MemRead $end
$var wire 1 F ex_MemWrite $end
$var wire 2 G ex_WriteSrc [1:0] $end
$var wire 1 H ex_Branch $end
$var wire 1 I ex_Jump $end
$var wire 32 J ex_pc [31:0] $end
$var wire 32 K ex_pc_plus_4 [31:0] $end
$var wire 32 L ex_ReadData1 [31:0] $end
$var wire 32 M ex_ReadData2 [31:0] $end
$var wire 32 N ex_imm [31:0] $end
$var wire 5 O ex_rs1 [4:0] $end
$var wire 5 P ex_rs2 [4:0] $end
$var wire 5 Q ex_rd [4:0] $end
$var wire 2 R ForwardA [1:0] $end
$var wire 2 S ForwardB [1:0] $end
$var wire 32 T ex_alu_in1 [31:0] $end
$var wire 32 U ex_alu_in2_mux1 [31:0] $end
$var wire 32 V ex_alu_in2_final [31:0] $end
$var wire 32 W ex_alu_result [31:0] $end
$var wire 1 X mem_RegWrite $end
$var wire 1 Y mem_MemRead $end
$var wire 1 Z mem_MemWrite $end
$var wire 2 [ mem_WriteSrc [1:0] $end
$var wire 32 \ mem_alu_result [31:0] $end
$var wire 32 ] mem_read_data2 [31:0] $end
$var wire 32 ^ mem_pc_plus_4 [31:0] $end
$var wire 5 _ mem_rd [4:0] $end
$var wire 1 ` mem_zero_flag $end
$var wire 32 a mem_data_mem_read_data [31:0] $end
$var wire 1 b wb_regwrite $end
$var wire 2 c wb_WriteSrc [1:0] $end
$var wire 32 d wb_alu_result [31:0] $end
$var wire 32 e wb_data_mem_read_data [31:0] $end
$var wire 32 f wb_pc_plus_4 [31:0] $end
$var wire 32 g wb_write_data [31:0] $end
$var wire 5 h wb_rd [4:0] $end
$var wire 1 i Branch_taken $end
$var wire 1 j JALR_taken $end
$var wire 1 k JAL_taken $end
$var reg 8 l led_register [7:0] $end
$scope module IFU_module $end
$var wire 1 & clock $end
$var wire 1 ' reset $end
$var wire 1 ) Stall $end
$var wire 32 . Next_PC [31:0] $end
$var wire 32 + Instruction_Code [31:0] $end
$var wire 32 , PC_out [31:0] $end
$var reg 32 m PC [31:0] $end
$scope module instr_mem $end
$var wire 32 n PC [31:0] $end
$var wire 1 ' reset $end
$var wire 32 + Instruction_Code [31:0] $end
$upscope $end
$upscope $end
$scope module if_id_reg_inst $end
$var wire 1 & clock $end
$var wire 1 ' reset $end
$var wire 1 ) Stall $end
$var wire 1 * Flush $end
$var wire 32 + inst_in [31:0] $end
$var wire 32 , pc_in [31:0] $end
$var wire 32 - pc_plus_4_in [31:0] $end
$var reg 32 o inst_out [31:0] $end
$var reg 32 p pc_out [31:0] $end
$var reg 32 q pc_plus_4_out [31:0] $end
$upscope $end
$scope module control_module $end
$var wire 7 r opcode [6:0] $end
$var wire 3 s funct3 [14:12] $end
$var wire 7 t funct7 [31:25] $end
$var reg 1 u regwrite $end
$var reg 4 v alu_control [3:0] $end
$var reg 1 w ALUSrc $end
$var reg 1 x MemRead $end
$var reg 1 y MemWrite $end
$var reg 2 z WriteSrc [1:0] $end
$var reg 1 { Branch $end
$var reg 1 | Jump $end
$upscope $end
$scope module reg_file_module $end
$var wire 5 4 read_reg_num1 [4:0] $end
$var wire 5 5 read_reg_num2 [4:0] $end
$var wire 5 h write_reg [4:0] $end
$var wire 32 g write_data [31:0] $end
$var wire 32 7 read_data1 [31:0] $end
$var wire 32 8 read_data2 [31:0] $end
$var wire 1 b regwrite $end
$var wire 1 & clock $end
$var wire 1 ' reset $end
$var integer 32 } i [31:0] $end
$upscope $end
$scope module imm_gen_module $end
$var wire 32 1 inst [31:0] $end
$var reg 32 ~ imm [31:0] $end
$var wire 7 !! opcode [6:0] $end
$upscope $end
$scope module hazard_unit $end
$var wire 1 E ex_MemRead $end
$var wire 5 Q ex_rd [4:0] $end
$var wire 5 4 id_rs1 [4:0] $end
$var wire 5 5 id_rs2 [4:0] $end
$var wire 1 ) Stall $end
$var wire 1 "! load_use_rs1 $end
$var wire 1 #! load_use_rs2 $end
$upscope $end
$scope module id_ex_reg_inst $end
$var wire 1 & clock $end
$var wire 1 ' reset $end
$var wire 1 ) Stall $end
$var wire 1 * Flush $end
$var wire 1 : id_RegWrite $end
$var wire 4 @ id_ALUControl [3:0] $end
$var wire 1 ; id_ALUSrc $end
$var wire 1 < id_MemRead $end
$var wire 1 = id_MemWrite $end
$var wire 2 A id_WriteSrc [1:0] $end
$var wire 1 > id_Branch $end
$var wire 1 ? id_Jump $end
$var wire 32 2 id_pc [31:0] $end
$var wire 32 3 id_pc_plus_4 [31:0] $end
$var wire 32 7 id_ReadData1 [31:0] $end
$var wire 32 8 id_ReadData2 [31:0] $end
$var wire 32 9 id_imm [31:0] $end
$var wire 5 6 id_rd [4:0] $end
$var wire 5 4 id_rs1 [4:0] $end
$var wire 5 5 id_rs2 [4:0] $end
$var reg 1 $! ex_RegWrite $end
$var reg 4 %! ex_ALUControl [3:0] $end
$var reg 1 &! ex_ALUSrc $end
$var reg 1 '! ex_MemRead $end
$var reg 1 (! ex_MemWrite $end
$var reg 2 )! ex_WriteSrc [1:0] $end
$var reg 1 *! ex_Branch $end
$var reg 1 +! ex_Jump $end
$var reg 32 ,! ex_pc [31:0] $end
$var reg 32 -! ex_pc_plus_4 [31:0] $end
$var reg 32 .! ex_ReadData1 [31:0] $end
$var reg 32 /! ex_ReadData2 [31:0] $end
$var reg 32 0! ex_imm [31:0] $end
$var reg 5 1! ex_rd [4:0] $end
$var reg 5 2! ex_rs1 [4:0] $end
$var reg 5 3! ex_rs2 [4:0] $end
$upscope $end
$scope module alu_module $end
$var wire 32 T in1 [31:0] $end
$var wire 32 V in2 [31:0] $end
$var wire 4 C alu_control [3:0] $end
$var reg 32 4! alu_result [31:0] $end
$var reg 1 5! zero_flag $end
$upscope $end
$scope module ex_mem_reg_inst $end
$var wire 1 & clock $end
$var wire 1 ' reset $end
$var wire 1 B ex_RegWrite $end
$var wire 1 E ex_MemRead $end
$var wire 1 F ex_MemWrite $end
$var wire 2 G ex_WriteSrc [1:0] $end
$var wire 32 W ex_alu_result [31:0] $end
$var wire 32 U ex_read_data2 [31:0] $end
$var wire 32 K ex_pc_plus_4 [31:0] $end
$var wire 5 Q ex_rd [4:0] $end
$var wire 1 % ex_zero_flag $end
$var reg 1 6! mem_RegWrite $end
$var reg 1 7! mem_MemRead $end
$var reg 1 8! mem_MemWrite $end
$var reg 2 9! mem_WriteSrc [1:0] $end
$var reg 32 :! mem_alu_result [31:0] $end
$var reg 32 ;! mem_read_data2 [31:0] $end
$var reg 32 <! mem_pc_plus_4 [31:0] $end
$var reg 5 =! mem_rd [4:0] $end
$var reg 1 >! mem_zero_flag $end
$upscope $end
$scope module data_mem_module $end
$var wire 1 & clock $end
$var wire 1 Y MemRead $end
$var wire 1 Z MemWrite $end
$var wire 32 \ address [31:0] $end
$var wire 32 ] write_data [31:0] $end
$var wire 32 a read_data [31:0] $end
$upscope $end
$scope module mem_wb_reg_inst $end
$var wire 1 & clock $end
$var wire 1 ' reset $end
$var wire 1 X mem_RegWrite $end
$var wire 2 [ mem_WriteSrc [1:0] $end
$var wire 32 \ mem_alu_result [31:0] $end
$var wire 32 a mem_data_mem_read_data [31:0] $end
$var wire 32 ^ mem_pc_plus_4 [31:0] $end
$var wire 5 _ mem_rd [4:0] $end
$var reg 1 ?! wb_RegWrite $end
$var reg 2 @! wb_WriteSrc [1:0] $end
$var reg 32 A! wb_alu_result [31:0] $end
$var reg 32 B! wb_data_mem_read_data [31:0] $end
$var reg 32 C! wb_pc_plus_4 [31:0] $end
$var reg 5 D! wb_rd [4:0] $end
$upscope $end
$scope module fwd_unit $end
$var wire 5 O id_ex_rs1 [4:0] $end
$var wire 5 P id_ex_rs2 [4:0] $end
$var wire 5 _ ex_mem_rd [4:0] $end
$var wire 1 X ex_mem_RegWrite $end
$var wire 5 h mem_wb_rd [4:0] $end
$var wire 1 b mem_wb_RegWrite $end
$var wire 2 R ForwardA [1:0] $end
$var wire 2 S ForwardB [1:0] $end
$upscope $end
$upscope $end
$upscope $end
$enddefinitions $end

#0
$dumpvars
0!
b0 !!
1"
0"!
b0 #
0#!
b0 $
0$!
1%
b10 %!
0&
0&!
1'
0'!
b0 (
0(!
0)
b0 )!
0*
0*!
b10000000000000000000000110110111 +
0+!
b0 ,
b0 ,!
b100 -
b0 -!
b100 .
b0 .!
b0 /
b0 /!
b0 0
b0 0!
b0 1
b0 1!
b0 2
b0 2!
b0 3
b0 3!
b0 4
b0 4!
b0 5
15!
b0 6
06!
bx 7
07!
bx 8
08!
bx 9
b0 9!
0:
b0 :!
0;
b0 ;!
0<
b0 <!
0=
b0 =!
0>
0>!
0?
0?!
b10 @
b0 @!
b0 A
b0 A!
0B
b0 B!
b10 C
b0 C!
0D
b0 D!
0E
0F
b0 G
0H
0I
b0 J
b0 K
b0 L
b0 M
b0 N
b0 O
b0 P
b0 Q
b0 R
b0 S
b0 T
b0 U
b0 V
b0 W
0X
0Y
0Z
b0 [
b0 \
b0 ]
b0 ^
b0 _
0`
b0 a
0b
b0 c
b0 d
b0 e
b0 f
b0 g
b0 h
0i
0j
0k
b0 l
b0 m
b0 n
b0 o
b0 p
b0 q
b0 r
b0 s
b0 t
0u
b10 v
0w
0x
0y
b0 z
0{
0|
bx }
bx ~
$end

#5000
1!
1&
b0 7
b0 8
b100000 }

#10000
0!
0&

#15000
1!
1&
b100000 }

#20000
0!
0"
0&
0'

#25000
1!
b110111 !!
1&
b10010011 +
b100 ,
b1000 -
b1000 .
bx /
bx 0!
b10000000000000000000000110110111 1
b100 3
b11 6
b10000000000000000000000000000000 9
1:
1;
1>!
b1111 @
bx N
1`
b100 m
b100 n
b10000000000000000000000110110111 o
b100 q
b110111 r
b0 s
b1000000 t
1u
b1111 v
1w
b10000000000000000000000000000000 ~

#30000
0!
0&

#35000
1!
b10011 !!
1$!
0%
b1111 %!
1&
1&!
b1100000000001000010011 +
b1000 ,
b1100 -
b100 -!
b1100 .
b10000000000000000000000000000000 /
b10000000000000000000000000000000 0
b10000000000000000000000000000000 0!
b10010011 1
b11 1!
b100 2
b1000 3
b10000000000000000000000000000000 4!
05!
b1 6
b0 9
b10 @
1B
b1111 C
1D
b100 K
b10000000000000000000000000000000 N
b11 Q
b10000000000000000000000000000000 V
b10000000000000000000000000000000 W
b1000 m
b1000 n
b10010011 o
b100 p
b1000 q
b10011 r
b0 s
b0 t
1u
b10 v
1w
b0 ~

#40000
0!
0&

#45000
1!
1%
b10 %!
1&
b100011010000000100011 +
b1100 ,
b100 ,!
b10000 -
b1000 -!
b10000 .
b100 /
b0 0
b0 0!
b1100000000001000010011 1
b1 1!
b1000 2
b1100 3
b0 4!
b11 5
15!
b100 6
16!
b11 8
b11 9
b10000000000000000000000000000000 :!
b100 <!
b11 =!
0>!
b10 C
b100 J
b1000 K
b0 N
b1 Q
b0 V
b0 W
1X
b10000000000000000000000000000000 \
b100 ^
b11 _
0`
b1100 m
b1100 n
b1100000000001000010011 o
b1000 p
b1100 q
b10011 r
b0 s
b0 t
b11 ~

#50000
0!
0&

#55000
1!
b100011 !!
0%
1&
b100001000000010010011 +
b10000 ,
b1000 ,!
b10100 -
b1100 -!
b10100 .
b1011 /
b11 /!
b11 0
b11 0!
b100011010000000100011 1
b100 1!
b1100 2
b10000 3
b11 3!
b11 4
b11 4!
b1 5
05!
b0 6
b11 7
b1 8
b0 9
0:
b0 :!
b1000 <!
1=
b1 =!
1>!
1?!
b10000000000000000000000000000000 A!
b100 C!
b11 D!
b1000 J
b1100 K
b11 M
b11 N
b11 P
b100 Q
b10 S
b10000000000000000000000000000000 U
b11 V
b11 W
b0 \
b1000 ^
b1 _
1`
1b
b10000000000000000000000000000000 d
b100 f
b10000000000000000000000000000000 g
b11 h
b10000 m
b10000 n
b100011010000000100011 o
b1100 p
b10000 q
b100011 r
b10 s
b0 t
0u
1w
1y
b0 ~

#60000
0!
0&

#65000
1!
b10011 !!
0$!
1&
1(!
b100010011 +
b10100 ,
b1100 ,!
b11000 -
b10000 -!
b11000 .
b11 .!
b1100 /
b1 /!
b0 0!
b100001000000010010011 1
b0 1!
b10000 2
b11 2!
b10100 3
b1 3!
b1 4
b11 4!
b1 6
b1 7
b1 9
1:
b11 :!
b10000000000000000000000000000000 ;!
b1100 <!
0=
b100 =!
0>!
b0 A!
0B
b1000 C!
b1 D!
1F
b1100 J
b10000 K
b11 L
b1 M
b0 N
b11 O
b1 P
b0 Q
b11 T
b0 U
b0 V
b11 \
b10000000000000000000000000000000 ]
b1100 ^
b100 _
0`
b0 d
b1000 f
b0 g
b1 h
b10100 m
b10100 n
b100001000000010010011 o
b10000 p
b10100 q
b10011 r
b0 s
b0 t
1u
1w
0y
b1 ~

#70000
0!
0&

#75000
1!
1$!
1&
0(!
b100010000000100010011 +
b11000 ,
b10000 ,!
b11100 -
b10100 -!
b11100 .
b1 .!
b10001 /
b10 0
b1 0!
b100010011 1
b1 1!
b10100 2
b1 2!
b11000 3
b0 4
b10 4!
b0 5
b10 6
06!
b0 7
b0 8
18!
b0 9
b0 ;!
b10000 <!
b0 =!
b11 A!
1B
b1100 C!
b100 D!
0F
b10000 J
b10100 K
b1 L
b1 N
b1 O
b1 Q
b0 S
b1 T
b1 U
b1 V
b10 W
0X
1Z
b0 ]
b10000 ^
b0 _
b11 d
b1100 f
b11 g
b100 h
b11000 m
b11000 n
b100010011 o
b10100 p
b11000 q
b10011 r
b0 s
b0 t
b0 ~

#80000
0!
0&

#85000
1!
1%
1&
b11111110010000010001111011100011 +
b11100 ,
b10100 ,!
b100000 -
b11000 -!
b100000 .
b0 .!
b10100 /
b0 /!
b0 0
b0 0!
b100010000000100010011 1
b10 1!
b11000 2
b0 2!
b11100 3
b0 3!
b10 4
b0 4!
b1 5
15!
16!
b10 7
08!
b1 9
b10 :!
b1 ;!
b10100 <!
b1 =!
0?!
b10000 C!
b0 D!
b10100 J
b11000 K
b0 L
b0 M
b0 N
b0 O
b0 P
b10 Q
b0 T
b0 U
b0 V
b0 W
1X
0Z
b10 \
b1 ]
b10100 ^
b1 _
0b
b10000 f
b0 h
b11100 m
b11100 n
b100010000000100010011 o
b11000 p
b11100 q
b10011 r
b0 s
b0 t
b1 ~

#90000
0!
0&

#95000
1!
b1100011 !!
0%
1&
b11111110110000011000000011101111 +
b100000 ,
b11000 ,!
b100100 -
b11100 -!
b100100 .
b10 .!
b11001 /
b1 0
b1 0!
b11111110010000010001111011100011 1
b11100 2
b10 2!
b100000 3
b1 3!
b1 4!
b100 5
05!
b11101 6
b11 8
b11111111111111111111111111111100 9
0:
b0 :!
0;
b0 ;!
b11000 <!
b10 =!
1>
1>!
1?!
b1001 @
b10 A!
b10100 C!
b1 D!
b11000 J
b11100 K
b10 L
b1 N
b10 O
b1 P
b1 R
b10 S
b0 T
b10 U
b1 V
b1 W
b0 \
b0 ]
b11000 ^
b10 _
1`
1b
b10 d
b10100 f
b10 g
b1 h
b100000 m
b100000 n
b11111110010000010001111011100011 o
b11100 p
b100000 q
b1100011 r
b1 s
b1111111 t
0u
b1001 v
0w
1{
b11111111111111111111111111111100 ~

#100000
0!
0&

#105000
1!
b1101111 !!
0$!
1%
b1001 %!
1&
0&!
1*
1*!
bx +
b100100 ,
b11100 ,!
b101000 -
b100000 -!
b11000 .
b11000 /
b11 /!
b11111111111111111111111111111100 0!
b11111110110000011000000011101111 1
b11101 1!
b100000 2
b100100 3
b100 3!
b11 4
b1 4!
b1100 5
15!
b1 6
b10000000000000000000000000000000 7
b1100 8
b11111111111100011000011111101100 9
1:
b1 :!
b10 ;!
b11100 <!
0>
0>!
1?
b10 @
b10 A
b0 A!
0B
b1001 C
b11000 C!
0D
b10 D!
1H
b11100 J
b100000 K
b11 M
b11111111111111111111111111111100 N
b100 P
b11101 Q
b0 S
b1 T
b11 U
b11 V
b1 \
b10 ]
b11100 ^
0`
b0 d
b11000 f
b0 g
b10 h
1i
b100100 m
b100100 n
b11111110110000011000000011101111 o
b100000 p
b100100 q
b1101111 r
b0 s
b1111111 t
1u
b10 v
b10 z
0{
1|
b11111111111100011000011111101100 ~

#110000
0!
0&

#115000
1!
b0 !!
b10 %!
1&
0*
0*!
b100010000000100010011 +
b11000 ,
b0 ,!
b11100 -
b0 -!
b11100 .
b0 .!
b0 /
b0 /!
b0 0
b0 0!
b0 1
b0 1!
b0 2
b0 2!
b0 3
b0 3!
b0 4
b0 4!
b0 5
15!
b0 6
06!
b0 7
b0 8
bx 9
0:
b11 ;!
b100000 <!
b11101 =!
1>!
0?
b0 A
b1 A!
b10 C
b11100 C!
0H
b0 J
b0 K
b0 L
b0 M
b0 N
b0 O
b0 P
b0 Q
b0 R
b0 T
b0 U
b0 V
b0 W
0X
b11 ]
b100000 ^
b11101 _
1`
b1 d
b11100 f
b1 g
0i
b11000 m
b11000 n
b0 o
b0 p
b0 q
b0 r
b0 s
b0 t
0u
b0 z
0|
bx ~

#120000
0!
0&

#125000
1!
b10011 !!
1&
b11111110010000010001111011100011 +
b11100 ,
b100000 -
b100000 .
bx /
bx 0!
b100010000000100010011 1
b11000 2
b11100 3
b10 4
b1 5
b10 6
b1 7
b10 8
b1 9
1:
b0 :!
1;
b0 ;!
b0 <!
b0 =!
0?!
b100000 C!
b11101 D!
bx N
b0 \
b0 ]
b0 ^
b0 _
0b
b100000 f
b11101 h
b11100 m
b11100 n
b100010000000100010011 o
b11000 p
b11100 q
b10011 r
b0 s
b0 t
1u
1w
b1 ~

#130000
0!
0&

#135000
1!
b1100011 !!
1$!
0%
1&
1&!
b11111110110000011000000011101111 +
b100000 ,
b11000 ,!
b100100 -
b11100 -!
b100100 .
b1 .!
b11001 /
b10 /!
b10 0
b1 0!
b11111110010000010001111011100011 1
b10 1!
b11100 2
b10 2!
b100000 3
b1 3!
b10 4!
b100 5
05!
b11101 6
b11 8
b11111111111111111111111111111100 9
0:
0;
1>
b1001 @
b0 A!
1B
b0 C!
1D
b0 D!
b11000 J
b11100 K
b1 L
b10 M
b1 N
b10 O
b1 P
b10 Q
b1 T
b10 U
b1 V
b10 W
b0 d
b0 f
b0 g
b0 h
b100000 m
b100000 n
b11111110010000010001111011100011 o
b11100 p
b100000 q
b1100011 r
b1 s
b1111111 t
0u
b1001 v
0w
1{
b11111111111111111111111111111100 ~

#140000
0!
0&

#145000
1!
b1101111 !!
0$!
1%
b1001 %!
1&
0&!
1*
1*!
bx +
b100100 ,
b11100 ,!
b101000 -
b100000 -!
b11000 .
b11000 /
b11 /!
b1 0
b11111111111111111111111111111100 0!
b11111110110000011000000011101111 1
b11101 1!
b100000 2
b100100 3
b100 3!
b11 4
b1 4!
b1100 5
15!
b1 6
16!
b10000000000000000000000000000000 7
b1100 8
b11111111111100011000011111101100 9
1:
b10 :!
b10 ;!
b11100 <!
b10 =!
0>
0>!
1?
b10 @
b10 A
0B
b1001 C
0D
1H
b11100 J
b100000 K
b11 M
b11111111111111111111111111111100 N
b100 P
b11101 Q
b1 R
b10 T
b11 U
b11 V
b1 W
1X
b10 \
b10 ]
b11100 ^
b10 _
0`
1i
b100100 m
b100100 n
b11111110110000011000000011101111 o
b100000 p
b100100 q
b1101111 r
b0 s
b1111111 t
1u
b10 v
b10 z
0{
1|
b11111111111100011000011111101100 ~

#150000
0!
0&

#155000
1!
b0 !!
b10 %!
1&
0*
0*!
b100010000000100010011 +
b11000 ,
b0 ,!
b11100 -
b0 -!
b11100 .
b0 .!
b0 /
b0 /!
b0 0
b0 0!
b0 1
b0 1!
b0 2
b0 2!
b0 3
b0 3!
b0 4
b0 4!
b0 5
15!
b0 6
06!
b0 7
b0 8
bx 9
0:
b1 :!
b11 ;!
b100000 <!
b11101 =!
1>!
0?
1?!
b0 A
b10 A!
b10 C
b11100 C!
b10 D!
0H
b0 J
b0 K
b0 L
b0 M
b0 N
b0 O
b0 P
b0 Q
b0 R
b0 T
b0 U
b0 V
b0 W
0X
b1 \
b11 ]
b100000 ^
b11101 _
1`
1b
b10 d
b11100 f
b10 g
b10 h
0i
b11000 m
b11000 n
b0 o
b0 p
b0 q
b0 r
b0 s
b0 t
0u
b0 z
0|
bx ~

#160000
0!
0&

#165000
1!
b10011 !!
1&
b11111110010000010001111011100011 +
b11100 ,
b100000 -
b100000 .
bx /
bx 0!
b100010000000100010011 1
b11000 2
b11100 3
b10 4
b1 5
b10 6
b10 7
b10 8
b1 9
1:
b0 :!
1;
b0 ;!
b0 <!
b0 =!
0?!
b1 A!
b100000 C!
b11101 D!
bx N
b0 \
b0 ]
b0 ^
b0 _
0b
b1 d
b100000 f
b1 g
b11101 h
b11100 m
b11100 n
b100010000000100010011 o
b11000 p
b11100 q
b10011 r
b0 s
b0 t
1u
1w
b1 ~

#170000
0!
0&

#175000
1!
b1100011 !!
1$!
0%
1&
1&!
b11111110110000011000000011101111 +
b100000 ,
b11000 ,!
b100100 -
b11100 -!
b100100 .
b10 .!
b11001 /
b10 /!
b11 0
b1 0!
b11111110010000010001111011100011 1
b10 1!
b11100 2
b10 2!
b100000 3
b1 3!
b11 4!
b100 5
05!
b11101 6
b11 8
b11111111111111111111111111111100 9
0:
0;
1>
b1001 @
b0 A!
1B
b0 C!
1D
b0 D!
b11000 J
b11100 K
b10 L
b10 M
b1 N
b10 O
b1 P
b10 Q
b10 T
b10 U
b1 V
b11 W
b0 d
b0 f
b0 g
b0 h
b100000 m
b100000 n
b11111110010000010001111011100011 o
b11100 p
b100000 q
b1100011 r
b1 s
b1111111 t
0u
b1001 v
0w
1{
b11111111111111111111111111111100 ~

#180000
0!
0&

#185000
1!
b1101111 !!
0$!
b1001 %!
1&
0&!
1*!
bx +
b100100 ,
b11100 ,!
b101000 -
b100000 -!
b101000 .
b11000 /
b11 /!
b0 0
b11111111111111111111111111111100 0!
b11111110110000011000000011101111 1
b11101 1!
b100000 2
b100100 3
b100 3!
b11 4
b0 4!
b1100 5
b1 6
16!
b10000000000000000000000000000000 7
b1100 8
b11111111111100011000011111101100 9
1:
b11 :!
b10 ;!
b11100 <!
b10 =!
0>
0>!
1?
b10 @
b10 A
0B
b1001 C
0D
1H
b11100 J
b100000 K
b11 M
b11111111111111111111111111111100 N
b100 P
b11101 Q
b1 R
b11 T
b11 U
b11 V
b0 W
1X
b11 \
b10 ]
b11100 ^
b10 _
0`
b100100 m
b100100 n
b11111110110000011000000011101111 o
b100000 p
b100100 q
b1101111 r
b0 s
b1111111 t
1u
b10 v
b10 z
0{
1|
b11111111111100011000011111101100 ~

#190000
0!
0&

#195000
1!
bx !!
1$!
b10 %!
1&
b10 )!
1*
0*!
1+!
b101000 ,
b100000 ,!
b101100 -
b100100 -!
b10000000000000000000000000001100 .
b10000000000000000000000000000000 .!
b11111111111100011000100000001100 /
b1100 /!
b10000000000000000000000000001100 0
b11111111111100011000011111101100 0!
bx 1
b1 1!
b100100 2
b11 2!
b101000 3
b1100 3!
bx 4
b10000000000000000000000000001100 4!
bx 5
bx 6
06!
bx 7
bx 8
bx 9
0:
b0 :!
b11 ;!
b100000 <!
b11101 =!
0?
1?!
b0 A
b11 A!
1B
b10 C
b11100 C!
b10 D!
b10 G
0H
1I
b100000 J
b100100 K
b10000000000000000000000000000000 L
b1100 M
b11111111111100011000011111101100 N
b11 O
b1100 P
b1 Q
b0 R
b10000000000000000000000000000000 T
b1100 U
b1100 V
b10000000000000000000000000001100 W
0X
b0 \
b11 ]
b100000 ^
b11101 _
1b
b11 d
b11100 f
b11 g
b10 h
1j
b101000 m
b101000 n
bx o
b100100 p
b101000 q
bx r
bx s
bx t
0u
b0 z
0|
bx ~

#200000
0!
0&

#205000
1!
b0 !!
0$!
1%
1&
b0 )!
0*
b100011010000000100011 +
0+!
b10000000000000000000000000001100 ,
b0 ,!
b10000000000000000000000000010000 -
b0 -!
b10000000000000000000000000010000 .
b0 .!
b0 /
b0 /!
b0 0
b0 0!
b0 1
b0 1!
b0 2
b0 2!
b0 3
b0 3!
b0 4
b0 4!
b0 5
15!
b0 6
16!
b0 7
b0 8
b10 9!
b10000000000000000000000000001100 :!
b1100 ;!
b100100 <!
b1 =!
0?!
b0 A!
0B
b100000 C!
b11101 D!
b0 G
0I
b0 J
b0 K
b0 L
b0 M
b0 N
b0 O
b0 P
b0 Q
b0 T
b0 U
b0 V
b0 W
1X
b10 [
b10000000000000000000000000001100 \
b1100 ]
b100100 ^
b1 _
0b
b0 d
b100000 f
b0 g
b11101 h
0j
b10000000000000000000000000001100 m
b10000000000000000000000000001100 n
b0 o
b0 p
b0 q
b0 r
b0 s
b0 t

#210000
0!
0&

#215000
1!
b100011 !!
1&
b100001000000010010011 +
b10000000000000000000000000010000 ,
b10000000000000000000000000010100 -
b10000000000000000000000000010100 .
bx /
bx 0!
b100011010000000100011 1
b10000000000000000000000000001100 2
b10000000000000000000000000010000 3
b11 4
b1 5
06!
b10000000000000000000000000000000 7
b10 8
b0 9
b0 9!
b0 :!
1;
b0 ;!
b0 <!
1=
b0 =!
1>!
1?!
b10 @!
b10000000000000000000000000001100 A!
b100100 C!
b1 D!
bx N
0X
b0 [
b0 \
b0 ]
b0 ^
b0 _
1`
1b
b10 c
b10000000000000000000000000001100 d
b100100 f
b100100 g
b1 h
b10000000000000000000000000010000 m
b10000000000000000000000000010000 n
b100011010000000100011 o
b10000000000000000000000000001100 p
b10000000000000000000000000010000 q
b100011 r
b10 s
b0 t
1w
1y
b0 ~

#220000
0!
0&

#225000
1!
b10011 !!
0%
1&
1&!
1(!
b100010011 +
b10000000000000000000000000010100 ,
b10000000000000000000000000001100 ,!
b10000000000000000000000000011000 -
b10000000000000000000000000010000 -!
b10000000000000000000000000011000 .
b10000000000000000000000000000000 .!
b10000000000000000000000000001100 /
b10 /!
b10000000000000000000000000000000 0
b0 0!
b100001000000010010011 1
b10000000000000000000000000010000 2
b11 2!
b10000000000000000000000000010100 3
b1 3!
b1 4
b10000000000000000000000000000000 4!
05!
b1 6
b100100 7
b100100 8
b1 9
1:
0=
0?!
b0 @!
b0 A!
b0 C!
1D
b0 D!
1F
b10000000000000000000000000001100 J
b10000000000000000000000000010000 K
b10000000000000000000000000000000 L
b10 M
b0 N
b11 O
b1 P
b10000000000000000000000000000000 T
b10 U
b10000000000000000000000000000000 W
0b
b0 c
b0 d
b0 f
b0 g
b0 h
b10000000000000000000000000010100 m
b10000000000000000000000000010100 n
b100001000000010010011 o
b10000000000000000000000000010000 p
b10000000000000000000000000010100 q
b10011 r
b0 s
b0 t
1u
1w
0y
b1 ~

#230000
0!
0&

#235000
1!
1$!
1&
0(!
b100010000000100010011 +
b10000000000000000000000000011000 ,
b10000000000000000000000000010000 ,!
b10000000000000000000000000011100 -
b10000000000000000000000000010100 -!
b10000000000000000000000000011100 .
b100100 .!
b10000000000000000000000000010001 /
b100100 /!
b100101 0
b1 0!
b100010011 1
b1 1!
b10000000000000000000000000010100 2
b1 2!
b10000000000000000000000000011000 3
b0 4
b100101 4!
b0 5
b10 6
b0 7
b0 8
18!
b0 9
b10000000000000000000000000000000 :!
b10 ;!
b10000000000000000000000000010000 <!
0>!
1B
0F
b10000000000000000000000000010000 J
b10000000000000000000000000010100 K
b100100 L
b100100 M
b1 N
b1 O
b1 Q
b100100 T
b100100 U
b1 V
b100101 W
1Z
b10000000000000000000000000000000 \
b10 ]
b10000000000000000000000000010000 ^
0`
b10000000000000000000000000011000 m
b10000000000000000000000000011000 n
b100010011 o
b10000000000000000000000000010100 p
b10000000000000000000000000011000 q
b10011 r
b0 s
b0 t
b0 ~

#240000
0!
0&

